{
    "content": [
        {
            "id": 104156,
            "denomination": "Agence B\u00e9ninoise d'Electrification Rurale et de Ma\u00eetrise d'Energie",
            "email": "aberme1474@yahoo.fr",
            "fax": null,
            "flagTache": 0,
            "idtype": 0,
            "logo": null,
            "photoResponsable": null,
            "responsable": "KAKI Christophe",
            "sigle": "ABERME",
            "statutpart": "",
            "telephone": "97269034",
            "typeautorite": {
                "id": 2,
                "code": "SAO",
                "description": "AGENCES, ET OFFICES DE L\u2019\u00c9TAT",
                "libelle": "AGENCES, ET OFFICES DE L\u2019\u00c9TAT",
                "ordre": 2,
                "autoritecontractantes": null,
                "nbContent": 0
            },
            "unitedelaicomplementpieces": "",
            "urlsiteweb": null,
            "valeurdelaicomplementpieces": 0,
            "annee": 2023,
            "datePublication": "2023-07-03",
            "services": null
        },
        {
            "id": 156340,
            "denomination": "Agence B\u00e9ninoise de Gestion Int\u00e9gr\u00e9e des Espaces Frontaliers",
            "email": "contact@abegief.org",
            "fax": null,
            "flagTache": 0,
            "idtype": 0,
            "logo": null,
            "photoResponsable": null,
            "responsable": "DOSSOU C. Bertin",
            "sigle": "ABeGIEF",
            "statutpart": "",
            "telephone": "21325688",
            "typeautorite": {
                "id": 2,
                "code": "SAO",
                "description": "AGENCES, ET OFFICES DE L\u2019\u00c9TAT",
                "libelle": "AGENCES, ET OFFICES DE L\u2019\u00c9TAT",
                "ordre": 2,
                "autoritecontractantes": null,
                "nbContent": 0
            },
            "unitedelaicomplementpieces": "",
            "urlsiteweb": "www.abegief.org",
            "valeurdelaicomplementpieces": 0,
            "annee": 2023,
            "datePublication": "2023-03-07",
            "services": null
        },
        {
            "id": 511387,
            "denomination": "Agence B\u00e9ninoise de R\u00e9gulation Pharmaceutique (ABRP)",
            "email": "abrp@gmail.com",
            "fax": "",
            "flagTache": 0,
            "idtype": null,
            "logo": null,
            "photoResponsable": null,
            "responsable": "",
            "sigle": "ABRP",
            "statutpart": null,
            "telephone": "456666345",
            "typeautorite": {
                "id": 2,
                "code": "SAO",
                "description": "AGENCES, ET OFFICES DE L\u2019\u00c9TAT",
                "libelle": "AGENCES, ET OFFICES DE L\u2019\u00c9TAT",
                "ordre": 2,
                "autoritecontractantes": null,
                "nbContent": 0
            },
            "unitedelaicomplementpieces": "",
            "urlsiteweb": "",
            "valeurdelaicomplementpieces": 0,
            "annee": 2023,
            "datePublication": "2023-06-06",
            "services": null
        },
        {
            "id": 495646,
            "denomination": "Agence B\u00e9ninoise de S\u00e9curit\u00e9 Sanitaire des Aliments",
            "email": "hossepfr@yahoo.fr",
            "fax": "",
            "flagTache": 0,
            "idtype": null,
            "logo": null,
            "photoResponsable": null,
            "responsable": "HOSSOU S\u00e8tondji Epiphane",
            "sigle": "ABSSA",
            "statutpart": null,
            "telephone": "97608073",
            "typeautorite": {
                "id": 2,
                "code": "SAO",
                "description": "AGENCES, ET OFFICES DE L\u2019\u00c9TAT",
                "libelle": "AGENCES, ET OFFICES DE L\u2019\u00c9TAT",
                "ordre": 2,
                "autoritecontractantes": null,
                "nbContent": 0
            },
            "unitedelaicomplementpieces": "",
            "urlsiteweb": "",
            "valeurdelaicomplementpieces": 0,
            "annee": 2023,
            "datePublication": "2023-07-20",
            "services": null
        },
        {
            "id": 508391,
            "denomination": "Agence B\u00e9ninoise de Valorisation des R\u00e9sultats de la Recherche et de l'Innovation Technologique (ABeVRIT)",
            "email": "vojos2011@yahoo.fr",
            "fax": "",
            "flagTache": 0,
            "idtype": null,
            "logo": null,
            "photoResponsable": null,
            "responsable": "",
            "sigle": "ABeVRIT",
            "statutpart": null,
            "telephone": "97566666",
            "typeautorite": {
                "id": 2,
                "code": "SAO",
                "description": "AGENCES, ET OFFICES DE L\u2019\u00c9TAT",
                "libelle": "AGENCES, ET OFFICES DE L\u2019\u00c9TAT",
                "ordre": 2,
                "autoritecontractantes": null,
                "nbContent": 0
            },
            "unitedelaicomplementpieces": "",
            "urlsiteweb": "",
            "valeurdelaicomplementpieces": 0,
            "annee": 2023,
            "datePublication": "2023-07-05",
            "services": null
        }
    ],
    "pageable": {
        "sort": {
            "unsorted": false,
            "sorted": true,
            "empty": false
        },
        "offset": 0,
        "pageSize": 5,
        "pageNumber": 0,
        "paged": true,
        "unpaged": false
    },
    "totalPages": 54,
    "last": false,
    "totalElements": 270,
    "size": 5,
    "number": 0,
    "sort": {
        "unsorted": false,
        "sorted": true,
        "empty": false
    },
    "first": true,
    "numberOfElements": 5,
    "empty": false
}